/* XPM */
static char * zandronum_xpm[] = {
"24 24 367 2",
"  	c None",
". 	c #040208",
"+ 	c #000005",
"@ 	c #000004",
"# 	c #030006",
"$ 	c #0B090E",
"% 	c #000000",
"& 	c #080708",
"* 	c #1E2119",
"= 	c #272C1F",
"- 	c #282D20",
"; 	c #21241B",
"> 	c #0C0C0C",
", 	c #010005",
"' 	c #181719",
") 	c #161712",
"! 	c #525B41",
"~ 	c #7F8D65",
"{ 	c #9AAC7A",
"] 	c #A5BB82",
"^ 	c #A6BB83",
"/ 	c #9BAE7B",
"( 	c #839269",
"_ 	c #5A6448",
": 	c #22241D",
"< 	c #070608",
"[ 	c #131215",
"} 	c #424934",
"| 	c #92A275",
"1 	c #B1C889",
"2 	c #AFC983",
"3 	c #A6BF7C",
"4 	c #9DB476",
"5 	c #9BB276",
"6 	c #A6BF7B",
"7 	c #B0CC83",
"8 	c #B0C887",
"9 	c #97A878",
"0 	c #525B43",
"a 	c #020204",
"b 	c #020104",
"c 	c #616C4C",
"d 	c #A3B780",
"e 	c #9BB175",
"f 	c #8B9D6B",
"g 	c #7B8B62",
"h 	c #69725B",
"i 	c #555751",
"j 	c #565951",
"k 	c #626757",
"l 	c #707A5E",
"m 	c #859667",
"n 	c #99AE73",
"o 	c #A7BB81",
"p 	c #74805C",
"q 	c #060607",
"r 	c #000002",
"s 	c #141316",
"t 	c #5C6746",
"u 	c #9BAE78",
"v 	c #B6D27D",
"w 	c #A7C376",
"x 	c #5D6852",
"y 	c #627052",
"z 	c #332E3E",
"A 	c #393341",
"B 	c #342D3E",
"C 	c #292039",
"D 	c #302A3C",
"E 	c #687456",
"F 	c #B3D47B",
"G 	c #A3BB73",
"H 	c #97AA73",
"I 	c #74805B",
"J 	c #030206",
"K 	c #020202",
"L 	c #363D28",
"M 	c #9BAD76",
"N 	c #8CA166",
"O 	c #92A968",
"P 	c #8CA864",
"Q 	c #AED574",
"R 	c #5D674E",
"S 	c #424242",
"T 	c #52584A",
"U 	c #6D7B56",
"V 	c #8EA866",
"W 	c #9FBD6D",
"X 	c #A3C46E",
"Y 	c #4E5746",
"Z 	c #6E7B57",
"` 	c #95AD69",
" .	c #96A870",
"..	c #545D43",
"+.	c #09080D",
"@.	c #0D0F0A",
"#.	c #869763",
"$.	c #8DA265",
"%.	c #8AA062",
"&.	c #272033",
"*.	c #4F5744",
"=.	c #B6E174",
"-.	c #87A05F",
";.	c #91AE64",
">.	c #89A65F",
",.	c #97B567",
"'.	c #616F4D",
").	c #ADD56F",
"!.	c #748B55",
"~.	c #17092C",
"{.	c #2B2536",
"].	c #80955D",
"^.	c #8DA363",
"/.	c #8EA06A",
"(.	c #24261F",
"_.	c #40492E",
":.	c #91A56A",
"<.	c #90A961",
"[.	c #616D4D",
"}.	c #231C2F",
"|.	c #333136",
"1.	c #6C8050",
"2.	c #91B061",
"3.	c #43473C",
"4.	c #373738",
"5.	c #130827",
"6.	c #505C42",
"7.	c #87A35C",
"8.	c #2C2931",
"9.	c #343236",
"0.	c #383B38",
"a.	c #62704D",
"b.	c #8DA661",
"c.	c #899D62",
"d.	c #596343",
"e.	c #060606",
"f.	c #677648",
"g.	c #80935B",
"h.	c #879F5C",
"i.	c #484D3D",
"j.	c #29262F",
"k.	c #323034",
"l.	c #25202E",
"m.	c #20192A",
"n.	c #292430",
"o.	c #2E2B32",
"p.	c #5C6A46",
"q.	c #B4DF6F",
"r.	c #667A49",
"s.	c #5F7046",
"t.	c #718B4E",
"u.	c #5F7246",
"v.	c #4B533E",
"w.	c #7E9358",
"x.	c #7B8E56",
"y.	c #778756",
"z.	c #10110F",
"A.	c #08060C",
"B.	c #181B13",
"C.	c #7E9059",
"D.	c #788B53",
"E.	c #809757",
"F.	c #404438",
"G.	c #2C2B2F",
"H.	c #211D28",
"I.	c #110A21",
"J.	c #201D28",
"K.	c #171024",
"L.	c #130D20",
"M.	c #799650",
"N.	c #B4DD6E",
"O.	c #5A6D41",
"P.	c #353B30",
"Q.	c #28282A",
"R.	c #24202A",
"S.	c #343532",
"T.	c #7D9455",
"U.	c #778A51",
"V.	c #84975D",
"W.	c #2A2E21",
"X.	c #07040D",
"Y.	c #181E0E",
"Z.	c #748A4B",
"`.	c #72854D",
" +	c #7F9855",
".+	c #2F2F2E",
"++	c #3A4331",
"@+	c #A0C861",
"#+	c #86A154",
"$+	c #8DAE58",
"%+	c #87A654",
"&+	c #7B9550",
"*+	c #7F9B50",
"=+	c #7A9C4B",
"-+	c #698046",
";+	c #7A8E50",
">+	c #A1C761",
",+	c #434F35",
"'+	c #28272A",
")+	c #7B9252",
"!+	c #73864C",
"~+	c #798F4D",
"{+	c #2D341E",
"]+	c #0B0812",
"^+	c #111805",
"/+	c #587026",
"(+	c #556B2C",
"_+	c #769540",
":+	c #2F3820",
"<+	c #020305",
"[+	c #648137",
"}+	c #E4FF77",
"|+	c #DCFF75",
"1+	c #E3FF79",
"2+	c #C9FF69",
"3+	c #CFFF6E",
"4+	c #A4D356",
"5+	c #9ECE51",
"6+	c #F4FF80",
"7+	c #71923E",
"8+	c #070808",
"9+	c #23291B",
"0+	c #72903E",
"a+	c #576D2D",
"b+	c #5B7529",
"c+	c #232C12",
"d+	c #0B0811",
"e+	c #121509",
"f+	c #566D27",
"g+	c #4F6623",
"h+	c #709433",
"i+	c #3B4F1B",
"j+	c #23350D",
"k+	c #CCFF62",
"l+	c #B8EB57",
"m+	c #0D1604",
"n+	c #070D01",
"o+	c #AFE353",
"p+	c #97CA45",
"q+	c #20300C",
"r+	c #304015",
"s+	c #739834",
"t+	c #4D6422",
"u+	c #5B732A",
"v+	c #1E2412",
"w+	c #0A090A",
"x+	c #485C21",
"y+	c #597129",
"z+	c #5B762B",
"A+	c #6E9035",
"B+	c #121809",
"C+	c #B0E953",
"D+	c #79A237",
"E+	c #698B2F",
"F+	c #C2FD5D",
"G+	c #0B0E05",
"H+	c #6B8C33",
"I+	c #607C2E",
"J+	c #556D27",
"K+	c #556A2A",
"L+	c #0D0E0B",
"M+	c #000008",
"N+	c #2F3C15",
"O+	c #617C2C",
"P+	c #4F6526",
"Q+	c #6B8D34",
"R+	c #759939",
"S+	c #0B0D05",
"T+	c #87B53E",
"U+	c #62832D",
"V+	c #4E6823",
"W+	c #95C845",
"X+	c #040502",
"Y+	c #6B8B34",
"Z+	c #719538",
"`+	c #5D7829",
" @	c #415023",
".@	c #06040C",
"+@	c #11140B",
"@@	c #5A722A",
"#@	c #587129",
"$@	c #506827",
"%@	c #82AB40",
"&@	c #3C4E1D",
"*@	c #4A6820",
"=@	c #344916",
"-@	c #283811",
";@	c #4D6C21",
">@	c #313F18",
",@	c #84AD40",
"'@	c #506927",
")@	c #566E28",
"!@	c #5F782D",
"~@	c #1D2115",
"{@	c #000009",
"]@	c #2E3917",
"^@	c #637E2D",
"/@	c #566F29",
"(@	c #698B33",
"_@	c #5E7B2E",
":@	c #050801",
"<@	c #030501",
"[@	c #020401",
"}@	c #070B03",
"|@	c #546E29",
"1@	c #709337",
"2@	c #556E29",
"3@	c #607B2A",
"4@	c #414E26",
"5@	c #000003",
"6@	c #0A080D",
"7@	c #030108",
"8@	c #455722",
"9@	c #627E2C",
"0@	c #57722A",
"a@	c #759A39",
"b@	c #0C1006",
"c@	c #010201",
"d@	c #719437",
"e@	c #5B772C",
"f@	c #5F7B2A",
"g@	c #52652C",
"h@	c #0A090C",
"i@	c #07040C",
"j@	c #060509",
"k@	c #485A25",
"l@	c #617D2C",
"m@	c #688932",
"n@	c #658432",
"o@	c #35451A",
"p@	c #141A0A",
"q@	c #050602",
"r@	c #121709",
"s@	c #314018",
"t@	c #628030",
"u@	c #6A8B33",
"v@	c #5E7B2A",
"w@	c #52662C",
"x@	c #111111",
"y@	c #05020A",
"z@	c #050309",
"A@	c #37441E",
"B@	c #5A732B",
"C@	c #719535",
"D@	c #7EA63D",
"E@	c #648431",
"F@	c #638331",
"G@	c #6F9136",
"H@	c #7EA53C",
"I@	c #739835",
"J@	c #5D772C",
"K@	c #425026",
"L@	c #0C0B0D",
"M@	c #000007",
"N@	c #1B2013",
"O@	c #3D4D20",
"P@	c #536B2A",
"Q@	c #648331",
"R@	c #6E9136",
"S@	c #658532",
"T@	c #566E2C",
"U@	c #425224",
"V@	c #212616",
"W@	c #0E0E0C",
"X@	c #273115",
"Y@	c #1E2512",
"Z@	c #0D0F0B",
"                    . + @ #                     ",
"              $ % & * = - ; > % ,               ",
"          ' % ) ! ~ { ] ^ / ( _ : % <           ",
"        [ % } | 1 2 3 4 5 6 7 8 9 0 a b         ",
"      [ % c d e f g h i j k l m n o p q r       ",
"    s % t u v w x y z A B C D E F G H I J K     ",
"    % L M N O P Q R S T U V W X Y Z `  ...%     ",
"  +.@.#.$.%.&.*.=.-.;.>.,.'.).!.~.{.].^./.(.%   ",
"  % _.:.<.[.}.|.1.2.3.4.5.6.7.8.9.0.a.b.c.d.%   ",
"  e.f.g.h.i.j.k.l.m.n.o.p.q.r.s.t.u.v.w.x.y.z.% ",
"A.B.C.D.E.F.G.H.I.J.K.L.M.N.O.P.Q.R.S.T.U.V.W.% ",
"X.Y.Z.`. +.+++@+#+$+%+&+*+=+-+;+>+,+'+)+!+~+{+% ",
"]+^+/+(+_+:+<+[+}+|+1+2+3+4+5+6+7+8+9+0+a+b+c+% ",
"d+e+f+g+h+i+% % j+k+l+m+n+o+p+q+% % r+s+t+u+v+% ",
"  w+x+y+z+A+B+% % C+D+% % E+F+% % G+H+I+J+K+L+% ",
"  M+N+O+P+Q+R+S+% T+U+% % V+W+% X+Y+Z+P+`+ @r   ",
"  .@+@@@#@$@%@&@% *@=@% % -@;@% >@,@'@)@!@~@%   ",
"    {@]@^@/@(@_@% :@<@% % [@}@% |@1@2@3@4@5@    ",
"    6@7@8@9@0@a@b@% % % % % % c@d@e@f@g@h@%     ",
"      i@j@k@l@m@n@o@p@q@X+r@s@t@u@v@w@x@%       ",
"        y@z@A@B@C@D@1@E@F@G@H@I@J@K@L@%         ",
"          J M@N@O@P@Q@R@G@S@T@U@V@@ %           ",
"              % @ W@v+X@X@Y@Z@r %               ",
"                    % % % %                     "};
